{
  "profiles": {
    "Docker Compose": {
      "commandName": "DockerCompose",
      "commandVersion": "1.0",
      "serviceActions": {
        "broadcast_server": "StartDebugging"
      }
    }
  }
}